%YAML 1.1
%TAG !u! tag:unity3d.com,2011:
--- !u!114 &11400000
MonoBehaviour:
  m_ObjectHideFlags: 0
  m_CorrespondingSourceObject: {fileID: 0}
  m_PrefabInstance: {fileID: 0}
  m_PrefabAsset: {fileID: 0}
  m_GameObject: {fileID: 0}
  m_Enabled: 1
  m_EditorHideFlags: 0
  m_Script: {fileID: 11500000, guid: fa6c49eeb931d3e4d98e74f34859d7cc, type: 3}
  m_Name: First
  m_EditorClassIdentifier: 
  m_counter: 10
  m_delay: 0.2
  m_projectile: {fileID: 508658718797436703, guid: e62e0900d6549584c8fbb3a25835ef3a,
    type: 3}
  m_bulletDamage: 0
  m_bulletSpeed: 15
