%YAML 1.1
%TAG !u! tag:unity3d.com,2011:
--- !u!114 &11400000
MonoBehaviour:
  m_ObjectHideFlags: 0
  m_CorrespondingSourceObject: {fileID: 0}
  m_PrefabInstance: {fileID: 0}
  m_PrefabAsset: {fileID: 0}
  m_GameObject: {fileID: 0}
  m_Enabled: 1
  m_EditorHideFlags: 0
  m_Script: {fileID: 11500000, guid: 9f15df04903935440b4c094aff235c3e, type: 3}
  m_Name: SubMachineGun
  m_EditorClassIdentifier: 
  weaponName: SubMachineGun
  sprite: {fileID: 21300000, guid: 7edcbffa6bedd5c448ca8b5506f73208, type: 3}
  attackRate: 0.2
  damage: 5
  projectile: {fileID: 508658718797436703, guid: e62e0900d6549584c8fbb3a25835ef3a,
    type: 3}
  projectileSpeed: 25
