%YAML 1.1
%TAG !u! tag:unity3d.com,2011:
--- !u!114 &11400000
MonoBehaviour:
  m_ObjectHideFlags: 0
  m_CorrespondingSourceObject: {fileID: 0}
  m_PrefabInstance: {fileID: 0}
  m_PrefabAsset: {fileID: 0}
  m_GameObject: {fileID: 0}
  m_Enabled: 1
  m_EditorHideFlags: 0
  m_Script: {fileID: 11500000, guid: c323f77f88843be4c83b635f997561c7, type: 3}
  m_Name: PlayerKatana
  m_EditorClassIdentifier: 
  weaponName: Sword
  sprite: {fileID: -6592684705855614887, guid: b47267a0472fe9c47a99309ed9a219bb, type: 3}
  attackRate: 0.1
  damage: 50
  attackRadius: 1
