%YAML 1.1
%TAG !u! tag:unity3d.com,2011:
--- !u!1 &8664976635949806666
GameObject:
  m_ObjectHideFlags: 0
  m_CorrespondingSourceObject: {fileID: 0}
  m_PrefabInstance: {fileID: 0}
  m_PrefabAsset: {fileID: 0}
  serializedVersion: 6
  m_Component:
  - component: {fileID: 8664976635949806664}
  - component: {fileID: 1374609865}
  - component: {fileID: 8664976635949806667}
  m_Layer: 0
  m_Name: EntitySpawner
  m_TagString: Untagged
  m_Icon: {fileID: 0}
  m_NavMeshLayer: 0
  m_StaticEditorFlags: 0
  m_IsActive: 1
--- !u!4 &8664976635949806664
Transform:
  m_ObjectHideFlags: 0
  m_CorrespondingSourceObject: {fileID: 0}
  m_PrefabInstance: {fileID: 0}
  m_PrefabAsset: {fileID: 0}
  m_GameObject: {fileID: 8664976635949806666}
  m_LocalRotation: {x: 0, y: 0, z: 0, w: 1}
  m_LocalPosition: {x: 0, y: 11, z: 0}
  m_LocalScale: {x: 1, y: 1, z: 1}
  m_Children: []
  m_Father: {fileID: 0}
  m_RootOrder: 0
  m_LocalEulerAnglesHint: {x: 0, y: 0, z: 0}
--- !u!114 &1374609865
MonoBehaviour:
  m_ObjectHideFlags: 0
  m_CorrespondingSourceObject: {fileID: 0}
  m_PrefabInstance: {fileID: 0}
  m_PrefabAsset: {fileID: 0}
  m_GameObject: {fileID: 8664976635949806666}
  m_Enabled: 1
  m_EditorHideFlags: 0
  m_Script: {fileID: 11500000, guid: bb2de370fe150dd4196e7cdbd1aa10c9, type: 3}
  m_Name: 
  m_EditorClassIdentifier: 
  m_objectsToPool:
  - {fileID: 9018408958575039524, guid: 0ad33d54bdab9bf42936fbda3adee9d1, type: 3}
  - {fileID: 4730147266798823860, guid: a766dccc8b418d34db1b63ab27030352, type: 3}
  m_numberOfObjects: 50
--- !u!114 &8664976635949806667
MonoBehaviour:
  m_ObjectHideFlags: 0
  m_CorrespondingSourceObject: {fileID: 0}
  m_PrefabInstance: {fileID: 0}
  m_PrefabAsset: {fileID: 0}
  m_GameObject: {fileID: 8664976635949806666}
  m_Enabled: 1
  m_EditorHideFlags: 0
  m_Script: {fileID: 11500000, guid: 0524a377d18b36c4eaa901d881600300, type: 3}
  m_Name: 
  m_EditorClassIdentifier: 
  m_numberOfEntities: 10
  m_triggerSpawnRange: 10
  m_spawnRange: 10
  m_playerLayer:
    serializedVersion: 2
    m_Bits: 256
  m_player: {fileID: 0}
